<svg version="1.1"
	 id="Layer_1" xmlns:v="http://schemas.microsoft.com/visio/2003/SVGExtensions/" xmlns:ev="http://www.w3.org/2001/xml-events"
	 xmlns="http://www.w3.org/2000/svg" xmlns:xlink="http://www.w3.org/1999/xlink" x="0px" y="0px" width="48.18px" height="48.76px"
	 viewBox="0.245 0.238 48.18 48.76" enable-background="new 0.245 0.238 48.18 48.76" xml:space="preserve">

		<linearGradient id="anim"  x1="0%" y1="100%">
      <stop offset="0%" stop-color="red" stop-opacity="1">
      		<animate attributeName="stop-color" 
      			values="red;rgba(255,0,0,0.3);red" dur="50ms" repeatCount="indefinite"/>
		</stop>
    </linearGradient>
        
<g>
	<g>
		<g transform="translate(8.74394,-0.24)">
			<g>
				<path fill="url(#anim)"   d="M38.68,0.478c0.55,0,1,0.45,1,1v46.76c0,0.55-0.45,1-1,1H1.001c-0.55,0-1-0.45-1-1v-13.31
					c0-0.55-0.45-1-1-1h-6.5c-0.55,0-1-0.45-1-1V1.478c0-0.55,0.45-1,1-1H38.68z">
					
        </path>
			</g>
		</g>
	</g>
</g>
</svg>
