<svg xmlns="http://www.w3.org/2000/svg" xmlns:xlink="http://www.w3.org/1999/xlink" xmlns:ev="http://www.w3.org/2001/xml-events"
		xmlns:v="http://schemas.microsoft.com/visio/2003/SVGExtensions/" width="3.49467in" height="1.71473in"
		viewBox="0 0 251.616 123.46" xml:space="preserve" color-interpolation-filters="sRGB" class="st2">


<linearGradient id="anim"  x1="0%" y1="100%">
      <stop offset="0%" stop-color="#C7C402" stop-opacity="1">
		<animate attributeName="stop-color" 
		values="#C7C402;#FEFE82;#C7C402" dur="500ms" repeatCount="indefinite"/>
		</stop>
    </linearGradient>
    
    		<g id="shape1-1" v:mID="1" v:groupContext="shape" transform="translate(0.375,-0.375)">
			<path fill="url(#anim)"   d="M250.87 0.87 L250.87 64.65 L170.08 64.65 L170.08 123.46 L102.38 123.46 L102.38 64.65 L39.71 64.65 L39.71 39.54
						 L0 39.54 L0 10.07 L40.46 10.07 L40.46 0.75 L250.87 0.87 Z" class="st1"/>
		</g>
</svg>
